…
│ 90% quantile log wage earnings │   1.0991 │
│                   mean log MPK │  -2.2357 │
│                    std log MPK │   0.1455 │
│              mean profit share │   0.3539 │
│               std profit share │   0.0360 │
│       10% quantile log profits │  -4.2202 │
│       25% quantile log profits │  -2.9847 │
│       75% quantile log profits │   0.6487 │
│       90% quantile log profits │   0.7219 │
│               mean log profits │  -1.3455 │
│                std log profits │   1.7947 │
│            semi-emp-elasticity │  -0.5467 │
│                noise parameter │   0.4000 │
└────────────────────────────────┴──────────┘
┌─────────────────────────────┬─────────┬─────────┬──────────┐
│                      Moment │   Run 1 │   Run 2 │   % Diff │
├─────────────────────────────┼─────────┼─────────┼──────────┤
│     tax on biz profits (Tb) │  0.2000 │  0.6420 │ 221.0000 │
│    tax on labor income (Tn) │  0.3700 │  0.3700 │   0.0000 │
│ collateral constraint (chi) │  1.2500 │  1.2500 │   0.0000 │
│           interest rate (r) │  0.0594 │  0.0605 │   1.7689 │
│          govt transfer (tr) │  0.6402 │  0.7761 │  21.2253 │
│                    wage (w) │  2.1611 │  2.1411 │  -0.9229 │
│   Nb (pvt biz labor demand) │  0.1364 │  0.1013 │ -25.7490 │
│      Nc (corp labor demand) │  0.5446 │  0.6234 │  14.4768 │
│    Kc (corp capital demand) │  8.3533 │  9.3675 │  12.1422 │
│       Yc (corp value added) │  2.1397 │  2.4269 │  13.4203 │
│ Kb (pvt biz capital demand) │  2.7261 │  1.9646 │ -27.9322 │
│    Yb (pvt biz value added) │  0.8935 │  0.6573 │ -26.4343 │
│             C (consumption) │  2.2474 │  2.2830 │   1.5827 │
│           K (total capital) │ 11.0794 │ 11.3322 │   2.2818 │
│            Y (total output) │  3.0333 │  3.0842 │   1.6802 │
│           Tc (tax on cons.) │  0.1348 │  0.1370 │   1.5827 │
│                           ⋮ │       ⋮ │       ⋮ │        ⋮ │
└─────────────────────────────┴─────────┴─────────┴──────────┘
                                               38 rows omitted
…
│ 90% quantile log wage earnings │   1.0830 │
│                   mean log MPK │  -2.2173 │
│                    std log MPK │   0.1696 │
│              mean profit share │   0.3593 │
│               std profit share │   0.0418 │
│       10% quantile log profits │  -4.2022 │
│       25% quantile log profits │  -2.9667 │
│       75% quantile log profits │   0.6368 │
│       90% quantile log profits │   0.7373 │
│               mean log profits │  -1.3138 │
│                std log profits │   1.7881 │
│            semi-emp-elasticity │  -0.5597 │
│                noise parameter │   0.4000 │
└────────────────────────────────┴──────────┘
┌─────────────────────────────┬─────────┬─────────┬──────────┐
│                      Moment │   Run 1 │   Run 2 │   % Diff │
├─────────────────────────────┼─────────┼─────────┼──────────┤
│     tax on biz profits (Tb) │  0.2000 │  0.6160 │ 208.0000 │
│    tax on labor income (Tn) │  0.3700 │  0.3700 │   0.0000 │
│ collateral constraint (chi) │  1.0500 │  1.0500 │   0.0000 │
│           interest rate (r) │  0.0587 │  0.0602 │   2.5232 │
│          govt transfer (tr) │  0.6323 │  0.7577 │  19.8195 │
│                    wage (w) │  2.1347 │  2.1068 │  -1.3056 │
│   Nb (pvt biz labor demand) │  0.1341 │  0.1024 │ -23.6839 │
│      Nc (corp labor demand) │  0.5466 │  0.6202 │  13.4696 │
│    Kc (corp capital demand) │  8.3425 │  9.1937 │  10.2038 │
│       Yc (corp value added) │  2.1214 │  2.3758 │  11.9882 │
│ Kb (pvt biz capital demand) │  2.5438 │  1.8865 │ -25.8371 │
│    Yb (pvt biz value added) │  0.8676 │  0.6535 │ -24.6802 │
│             C (consumption) │  2.2150 │  2.2434 │   1.2813 │
│           K (total capital) │ 10.8862 │ 11.0803 │   1.7822 │
│            Y (total output) │  2.9890 │  3.0292 │   1.3448 │
│           Tc (tax on cons.) │  0.1329 │  0.1346 │   1.2813 │
│                           ⋮ │       ⋮ │       ⋮ │        ⋮ │
└─────────────────────────────┴─────────┴─────────┴──────────┘
                                               38 rows omitted
…
│ 90% quantile log wage earnings │   1.0969 │
│                   mean log MPK │  -2.2619 │
│                    std log MPK │   0.0971 │
│              mean profit share │   0.3462 │
│               std profit share │   0.0244 │
│       10% quantile log profits │  -4.2205 │
│       25% quantile log profits │  -2.9850 │
│       75% quantile log profits │   0.7089 │
│       90% quantile log profits │   0.7217 │
│               mean log profits │  -1.3313 │
│                std log profits │   1.8043 │
│            semi-emp-elasticity │  -0.5720 │
│                noise parameter │   0.4000 │
└────────────────────────────────┴──────────┘
┌─────────────────────────────┬─────────┬─────────┬──────────┐
│                      Moment │   Run 1 │   Run 2 │   % Diff │
├─────────────────────────────┼─────────┼─────────┼──────────┤
│     tax on biz profits (Tb) │  0.2000 │  0.6440 │ 222.0000 │
│    tax on labor income (Tn) │  0.3700 │  0.3700 │   0.0000 │
│ collateral constraint (chi) │  2.0000 │  2.0000 │   0.0000 │
│           interest rate (r) │  0.0602 │  0.0607 │   0.9034 │
│          govt transfer (tr) │  0.6314 │  0.7762 │  22.9419 │
│                    wage (w) │  2.1465 │  2.1363 │  -0.4759 │
│   Nb (pvt biz labor demand) │  0.1468 │  0.1087 │ -25.9664 │
│      Nc (corp labor demand) │  0.5325 │  0.6150 │  15.5082 │
│    Kc (corp capital demand) │  8.0457 │  9.1955 │  14.2902 │
│       Yc (corp value added) │  2.0781 │  2.3889 │  14.9585 │
│ Kb (pvt biz capital demand) │  3.0353 │  2.2006 │ -27.5000 │
│    Yb (pvt biz value added) │  0.9550 │  0.7037 │ -26.3187 │
│             C (consumption) │  2.2472 │  2.2882 │   1.8266 │
│           K (total capital) │ 11.0811 │ 11.3961 │   2.8430 │
│            Y (total output) │  3.0331 │  3.0926 │   1.9616 │
│           Tc (tax on cons.) │  0.1348 │  0.1373 │   1.8266 │
│                           ⋮ │       ⋮ │       ⋮ │        ⋮ │
└─────────────────────────────┴─────────┴─────────┴──────────┘
                                               38 rows omitted
…
│ 90% quantile log wage earnings │   1.0933 │
│                   mean log MPK │  -2.2134 │
│                    std log MPK │   0.1538 │
│              mean profit share │   0.3585 │
│               std profit share │   0.0384 │
│       10% quantile log profits │  -2.9854 │
│       25% quantile log profits │  -0.5143 │
│       75% quantile log profits │   0.7212 │
│       90% quantile log profits │   0.7212 │
│               mean log profits │  -0.2264 │
│                std log profits │   1.5164 │
│            semi-emp-elasticity │  -1.9955 │
│                noise parameter │   0.0750 │
└────────────────────────────────┴──────────┘
┌─────────────────────────────┬─────────┬─────────┬──────────┐
│                      Moment │   Run 1 │   Run 2 │   % Diff │
├─────────────────────────────┼─────────┼─────────┼──────────┤
│     tax on biz profits (Tb) │  0.2000 │  0.5320 │ 166.0000 │
│    tax on labor income (Tn) │  0.3700 │  0.3700 │   0.0000 │
│ collateral constraint (chi) │  1.2500 │  1.2500 │   0.0000 │
│           interest rate (r) │  0.0605 │  0.0611 │   1.0576 │
│          govt transfer (tr) │  0.8335 │  0.9574 │  14.8612 │
│                    wage (w) │  2.1406 │  2.1286 │  -0.5576 │
│   Nb (pvt biz labor demand) │  0.1486 │  0.0612 │ -58.8195 │
│      Nc (corp labor demand) │  0.7001 │  0.8843 │  26.3044 │
│    Kc (corp capital demand) │ 10.5140 │ 13.1157 │  24.7446 │
│       Yc (corp value added) │  2.7248 │  3.4223 │  25.6001 │
│ Kb (pvt biz capital demand) │  2.9885 │  1.1972 │ -59.9391 │
│    Yb (pvt biz value added) │  0.9638 │  0.3947 │ -59.0492 │
│             C (consumption) │  2.7550 │  2.8339 │   2.8645 │
│           K (total capital) │ 13.5025 │ 14.3129 │   6.0016 │
│            Y (total output) │  3.6886 │  3.8170 │   3.4816 │
│           Tc (tax on cons.) │  0.1653 │  0.1700 │   2.8645 │
│                           ⋮ │       ⋮ │       ⋮ │        ⋮ │
└─────────────────────────────┴─────────┴─────────┴──────────┘
                                               38 rows omitted
…
│ 90% quantile log wage earnings │   1.8814 │
│                   mean log MPK │  -2.2309 │
│                    std log MPK │   0.1844 │
│              mean profit share │   0.3576 │
│               std profit share │   0.0438 │
│       10% quantile log profits │  -6.0370 │
│       25% quantile log profits │  -4.1837 │
│       75% quantile log profits │   1.2425 │
│       90% quantile log profits │   1.3753 │
│               mean log profits │  -1.7799 │
│                std log profits │   2.7005 │
│            semi-emp-elasticity │  -0.4075 │
│                noise parameter │   0.4000 │
└────────────────────────────────┴──────────┘
┌─────────────────────────────┬─────────┬─────────┬──────────┐
│                      Moment │   Run 1 │   Run 2 │   % Diff │
├─────────────────────────────┼─────────┼─────────┼──────────┤
│     tax on biz profits (Tb) │  0.2000 │  0.5600 │ 180.0000 │
│    tax on labor income (Tn) │  0.3700 │  0.3700 │   0.0000 │
│ collateral constraint (chi) │  1.2500 │  1.2500 │   0.0000 │
│           interest rate (r) │  0.0577 │  0.0590 │   2.2051 │
│          govt transfer (tr) │  1.4092 │  1.5910 │  12.9058 │
│                    wage (w) │  3.9995 │  3.9540 │  -1.1360 │
│   Nb (pvt biz labor demand) │  0.1195 │  0.0995 │ -16.7571 │
│      Nc (corp labor demand) │  0.5752 │  0.6189 │   7.6000 │
│    Kc (corp capital demand) │ 16.6340 │ 17.4495 │   4.9026 │
│       Yc (corp value added) │  4.1829 │  4.4497 │   6.3777 │
│ Kb (pvt biz capital demand) │  4.2881 │  3.4498 │ -19.5494 │
│    Yb (pvt biz value added) │  1.4487 │  1.1923 │ -17.7027 │
│             C (consumption) │  4.2454 │  4.2571 │   0.2758 │
│           K (total capital) │ 20.9221 │ 20.8993 │  -0.1090 │
│            Y (total output) │  5.6317 │  5.6420 │   0.1831 │
│           Tc (tax on cons.) │  0.2547 │  0.2554 │   0.2758 │
│                           ⋮ │       ⋮ │       ⋮ │        ⋮ │
└─────────────────────────────┴─────────┴─────────┴──────────┘
                                               38 rows omitted
…
